Predicting chocolate bar ratings | Alex Labuda
…
Feature Engineering

Here we will unnest each word in most_memorable_characteristics and examine. We will then use these in our predictions

library(tidytext)

tidy_chocolate <- 
  chocolate %>% 
  # puts each word on it's own row
  unnest_tokens(word, most_memorable_characteristics)

tidy_chocolate %>% 
  count(word, sort = TRUE)

## # A tibble: 547 × 2
##    word        n
##    <chr>   <int>
##  1 cocoa     419
##  2 sweet     318
##  3 nutty     278
##  4 fruit     273
##  5 roasty    228
##  6 mild      226
##  7 sour      208
##  8 earthy    199
##  9 creamy    189
## 10 intense   178
## # … with 537 more rows
…
# bake for a recipe is like predict for a model
prep(choco_recipe) %>% 
  bake(new_data = NULL)

## # A tibble: 1,896 × 101
##    rating tf_most_memo…¹ tf_mo…² tf_mo…³ tf_mo…⁴ tf_mo…⁵ tf_mo…⁶ tf_mo…⁷ tf_mo…⁸
##     <dbl>          <dbl>   <dbl>   <dbl>   <dbl>   <dbl>   <dbl>   <dbl>   <dbl>
##  1   3                 0       0       0       0       0       0       0       0
##  2   2.75              0       0       0       0       0       0       0       0
##  3   3                 0       0       0       0       0       0       0       0
##  4   3                 0       0       0       0       0       0       0       0
##  5   2.75              0       0       0       0       0       0       0       0
##  6   3                 1       0       0       0       0       0       0       0
##  7   2.75              0       0       0       0       0       0       0       0
##  8   2.5               0       0       0       0       0       0       0       0
##  9   2.75              0       0       0       0       0       0       0       0
## 10   3                 0       0       0       0       0       0       0       0
## # … with 1,886 more rows, 92 more variables:
## #   tf_most_memorable_characteristics_black <dbl>,
## #   tf_most_memorable_characteristics_bland <dbl>,
## #   tf_most_memorable_characteristics_bold <dbl>,
## #   tf_most_memorable_characteristics_bright <dbl>,
## #   tf_most_memorable_characteristics_brownie <dbl>,
## #   tf_most_memorable_characteristics_burnt <dbl>, …
…
